{
  "lives": [
    {
      "id": 1,
      "movie_id": 5,
      "created_at": "2013/10/10 10:11:12",
      "updated_at": "2013/10/10 10:11:12",
      "title": "Re:ゼロからはじめる異世界生活 18話「ゼロから」",
      "total_view_user_count": 13002,
      "is_on_the_air": false,
      "total_comment_count": 4000,
      "broadcast_start_at": "2013/10/10 10:11:12",
      "broadcast_end_at": "2013/10/10 10:11:12",
      "total_movie_length": "00:24:40",
      "thumb_movie_url": "https://s3-ap-northeast-1.amazonaws.com/festydirections3/anilive_sample/Re-Zero+kara+Hajimeru+Isekai+Seikatsu+18+-+AniTube!+Animes+Online.mp4",
      "images": {
        "small": "https://s3-ap-northeast-1.amazonaws.com/festydirections3/thumb_rezero.jpg",
        "medium": "https://s3-ap-northeast-1.amazonaws.com/festydirections3/thumb_rezero.jpg",
        "large": "https://s3-ap-northeast-1.amazonaws.com/festydirections3/thumb_rezero.jpg"
      }
    },
    {
      "id": 2,
      "movie_id": 3,
      "created_at": "2013/10/10 10:11:12",
      "updated_at": "2013/10/10 10:11:12",
      "title": "キングダム38話(最終回)「継承」",
      "total_view_user_count": 85429,
      "is_on_the_air": true,
      "total_comment_count": 87439,
      "broadcast_start_at": "2013/10/10 10:11:12",
      "broadcast_end_at": "2013/10/10 10:11:12",
      "total_movie_length": "00:01:40",
      "thumb_movie_url": "https://s3-ap-northeast-1.amazonaws.com/festydirections3/anilive_sample/Kingdom+38+-+FINAL+-+AniTube!+Animes+Online.mp4",
      "images": {
        "small": "https://s3-ap-northeast-1.amazonaws.com/festydirections3/anilive_sample/thumb2_kingdam38.jpg",
        "medium": "https://s3-ap-northeast-1.amazonaws.com/festydirections3/anilive_sample/thumb2_kingdam38.jpg",
        "large": "https://s3-ap-northeast-1.amazonaws.com/festydirections3/anilive_sample/thumb2_kingdam38.jpg"
      }
    },
    {
      "id": 3,
      "movie_id": 2,
      "created_at": "2013/10/10 10:11:12",
      "updated_at": "2013/10/10 10:11:12",
      "title": "ラブライブ！サンシャイン!!12話「はばたきのとき」",
      "total_view_user_count": 36442,
      "is_on_the_air": false,
      "total_comment_count": 542,
      "broadcast_start_at": "2013/10/10 10:11:12",
      "broadcast_end_at": "2013/10/10 10:11:12",
      "total_movie_length": "01:43:32",
      "thumb_movie_url": "https://s3-ap-northeast-1.amazonaws.com/festydirections3/anilive_sample/Love+Live!+Sunshine!!+12+-+AniTube!+Animes+Online.mp4",
      "images": {
        "small": "https://s3-ap-northeast-1.amazonaws.com/festydirections3/anilive_sample/thumb_lovelive.jpg",
        "medium": "https://s3-ap-northeast-1.amazonaws.com/festydirections3/anilive_sample/thumb_lovelive.jpg",
        "large": "https://s3-ap-northeast-1.amazonaws.com/festydirections3/anilive_sample/thumb_lovelive.jpg"
      }
    },
    {
      "id": 4,
      "movie_id": 1,
      "created_at": "2013/10/10 10:11:12",
      "updated_at": "2013/10/10 10:11:12",
      "title": "食戟のソーマ1話「果て無き荒野」",
      "total_view_user_count": 36442,
      "is_on_the_air": false,
      "total_comment_count": 542,
      "broadcast_start_at": "2013/10/10 10:11:12",
      "broadcast_end_at": "2013/10/10 10:11:12",
      "total_movie_length": "01:43:32",
      "thumb_movie_url": "https://s3-ap-northeast-1.amazonaws.com/festydirections3/Shokugeki+no+Soma+saison+1+ep+1+vostfr+(food+wars).mp4",
      "images": {
        "small": "https://s3-ap-northeast-1.amazonaws.com/festydirections3/anilive_sample/thumb2_soma.jpg",
        "medium": "https://s3-ap-northeast-1.amazonaws.com/festydirections3/anilive_sample/thumb2_soma.jpg",
        "large": "https://s3-ap-northeast-1.amazonaws.com/festydirections3/anilive_sample/thumb2_soma.jpg"
      }
    }
  ]
}