{
    "forums": [
        {
            "id": 201,
            "movie_id": 5,
            "title": "Re:ゼロから始める異世界生活 18話 みんなの感想",
            "forum_pinned_at": "00:00:00",
            "number_of_comments": 20,
            "forum_owner_username": "mizuki",
            "created_at": "2016/09/15 11:00:00",
            "updated_at": "2014/02/23 11:00:00",
            "hashtags": [
                {
                    "id": 1,
                    "name": "tag1",
                    "created_at": "2014/02/22 11:00:00",
                    "updated_at": "2014/02/22 11:00:00"
                },
                {
                    "id": 1,
                    "name": "tag1",
                    "created_at": "2014/02/22 11:00:00",
                    "updated_at": "2014/02/22 11:00:00"
                }
            ],
            "comments": [
            ],
            "images": {
                "small": "image-url/small.jpg",
                "medium": "image-url/medium.jpg",
                "large": "image-url/large.jpg"
            }
        },
        {
            "id": 202,
            "movie_id": 5,
            "title": "ペテルギウスってめっちゃ不気味だよね",
            "forum_pinned_at": "00:01:30",
            "number_of_comments": 108,
            "forum_owner_username": "akari",
            "created_at": "2014/02/22 11:10:00",
            "updated_at": "2014/02/23 11:10:00",
            "hashtags": [
                {
                    "id": 1,
                    "name": "tag1",
                    "created_at": "2014/02/22 11:10:00",
                    "updated_at": "2014/02/22 11:10:00"
                },
                {
                    "id": 1,
                    "name": "tag1",
                    "created_at": "2014/02/22 11:10:00",
                    "updated_at": "2014/02/22 11:10:00"
                }
            ],
            "comments": [
            ],
            "images": {
                "small": "image-url/small.jpg",
                "medium": "image-url/medium.jpg",
                "large": "image-url/large.jpg"
            }
        },
        {
            "id": 203,
            "movie_id": 5,
            "title": "レムは俺の嫁！",
            "forum_pinned_at": "00:03:45",
            "number_of_comments": 20,
            "forum_owner_username": "otome",
            "created_at": "2016/09/15 11:00:00",
            "updated_at": "2014/02/23 11:00:00",
            "hashtags": [
                {
                    "id": 1,
                    "name": "tag1",
                    "created_at": "2014/02/22 11:00:00",
                    "updated_at": "2014/02/22 11:00:00"
                },
                {
                    "id": 1,
                    "name": "tag1",
                    "created_at": "2014/02/22 11:00:00",
                    "updated_at": "2014/02/22 11:00:00"
                }
            ],
            "comments": [
            ],
            "images": {
                "small": "image-url/small.jpg",
                "medium": "image-url/medium.jpg",
                "large": "image-url/large.jpg"
            }
        },
        {
            "id": 204,
            "movie_id": 5,
            "title": "スバルくんの目が…",
            "forum_pinned_at": "00:04:45",
            "number_of_comments": 20,
            "forum_owner_username": "otome",
            "created_at": "2016/09/15 11:00:00",
            "updated_at": "2014/02/23 11:00:00",
            "hashtags": [
                {
                    "id": 1,
                    "name": "tag1",
                    "created_at": "2014/02/22 11:00:00",
                    "updated_at": "2014/02/22 11:00:00"
                },
                {
                    "id": 1,
                    "name": "tag1",
                    "created_at": "2014/02/22 11:00:00",
                    "updated_at": "2014/02/22 11:00:00"
                }
            ],
            "comments": [
            ],
            "images": {
                "small": "image-url/small.jpg",
                "medium": "image-url/medium.jpg",
                "large": "image-url/large.jpg"
            }
        },
        {
            "id": 205,
            "movie_id": 5,
            "title": "俺だったらラムと逃げる！",
            "forum_pinned_at": "00:07:10",
            "number_of_comments": 20,
            "forum_owner_username": "aoi",
            "created_at": "2016/09/15 11:00:00",
            "updated_at": "2014/02/23 11:00:00",
            "hashtags": [
                {
                    "id": 1,
                    "name": "tag1",
                    "created_at": "2014/02/22 11:00:00",
                    "updated_at": "2014/02/22 11:00:00"
                },
                {
                    "id": 1,
                    "name": "tag1",
                    "created_at": "2014/02/22 11:00:00",
                    "updated_at": "2014/02/22 11:00:00"
                }
            ],
            "comments": [
            ],
            "images": {
                "small": "image-url/small.jpg",
                "medium": "image-url/medium.jpg",
                "large": "image-url/large.jpg"
            }
        },
        {
            "id": 206,
            "movie_id": 5,
            "title": "背景がめっちゃきれいだよね",
            "forum_pinned_at": "00:09:15",
            "number_of_comments": 20,
            "forum_owner_username": "hinaki",
            "created_at": "2016/09/15 11:00:00",
            "updated_at": "2014/02/23 11:00:00",
            "hashtags": [
                {
                    "id": 1,
                    "name": "tag1",
                    "created_at": "2014/02/22 11:00:00",
                    "updated_at": "2014/02/22 11:00:00"
                },
                {
                    "id": 1,
                    "name": "tag1",
                    "created_at": "2014/02/22 11:00:00",
                    "updated_at": "2014/02/22 11:00:00"
                }
            ],
            "comments": [
            ],
            "images": {
                "small": "image-url/small.jpg",
                "medium": "image-url/medium.jpg",
                "large": "image-url/large.jpg"
            }
        },
        {
            "id": 207,
            "movie_id": 5,
            "title": "レムの話が切なすぎる…",
            "forum_pinned_at": "00:10:30",
            "number_of_comments": 20,
            "forum_owner_username": "ran",
            "created_at": "2016/09/15 11:00:00",
            "updated_at": "2014/02/23 11:00:00",
            "hashtags": [
                {
                    "id": 1,
                    "name": "tag1",
                    "created_at": "2014/02/22 11:00:00",
                    "updated_at": "2014/02/22 11:00:00"
                },
                {
                    "id": 1,
                    "name": "tag1",
                    "created_at": "2014/02/22 11:00:00",
                    "updated_at": "2014/02/22 11:00:00"
                }
            ],
            "comments": [
            ],
            "images": {
                "small": "image-url/small.jpg",
                "medium": "image-url/medium.jpg",
                "large": "image-url/large.jpg"
            }
        },
        {
            "id": 204,
            "movie_id": 5,
            "title": "スバルくん、目が……",
            "forum_pinned_at": "00:04:45",
            "number_of_comments": 20,
            "forum_owner_username": "sakura",
            "created_at": "2016/09/15 11:00:00",
            "updated_at": "2014/02/23 11:00:00",
            "hashtags": [
                {
                    "id": 1,
                    "name": "tag1",
                    "created_at": "2014/02/22 11:00:00",
                    "updated_at": "2014/02/22 11:00:00"
                },
                {
                    "id": 1,
                    "name": "tag1",
                    "created_at": "2014/02/22 11:00:00",
                    "updated_at": "2014/02/22 11:00:00"
                }
            ],
            "comments": [
            ],
            "images": {
                "small": "image-url/small.jpg",
                "medium": "image-url/medium.jpg",
                "large": "image-url/large.jpg"
            }
        },
        {
            "id": 101,
            "movie_id": 3,
            "title": "キングダム 38話 みんなの感想",
            "forum_pinned_at": "00:00:00",
            "number_of_comments": 20,
            "forum_owner_username": "ichigo",
            "created_at": "2016/07/01 11:00:00",
            "updated_at": "2014/02/23 11:00:00",
            "hashtags": [
                {
                    "id": 1,
                    "name": "tag1",
                    "created_at": "2014/02/22 11:00:00",
                    "updated_at": "2014/02/22 11:00:00"
                },
                {
                    "id": 1,
                    "name": "tag1",
                    "created_at": "2014/02/22 11:00:00",
                    "updated_at": "2014/02/22 11:00:00"
                }
            ],
            "comments": [
            ],
            "images": {
                "small": "image-url/small.jpg",
                "medium": "image-url/medium.jpg",
                "large": "image-url/large.jpg"
            }
        },
        {
            "id": 102,
            "movie_id": 3,
            "title": "ここマジで名言！！！",
            "forum_pinned_at": "00:00:30",
            "number_of_comments": 108,
            "forum_owner_username": "aoi",
            "created_at": "2016/07/01 12:10:00",
            "updated_at": "2014/02/23 12:10:00",
            "hashtags": [
                {
                    "id": 1,
                    "name": "tag1",
                    "created_at": "2014/02/22 11:10:00",
                    "updated_at": "2014/02/22 11:10:00"
                },
                {
                    "id": 1,
                    "name": "tag1",
                    "created_at": "2014/02/22 11:10:00",
                    "updated_at": "2014/02/22 11:10:00"
                }
            ],
            "comments": [
            ],
            "images": {
                "small": "image-url/small.jpg",
                "medium": "image-url/medium.jpg",
                "large": "image-url/large.jpg"
            }
        },
        {
            "id": 103,
            "movie_id": 3,
            "title": "騰かっこよすぎる……",
            "forum_pinned_at": "00:00:45",
            "number_of_comments": 108,
            "forum_owner_username": "ran",
            "created_at": "2016/07/01 11:11:00",
            "updated_at": "2014/02/23 11:11:00",
            "hashtags": [
                {
                    "id": 1,
                    "name": "tag1",
                    "created_at": "2014/02/22 11:10:00",
                    "updated_at": "2014/02/22 11:10:00"
                },
                {
                    "id": 1,
                    "name": "tag1",
                    "created_at": "2014/02/22 11:10:00",
                    "updated_at": "2014/02/22 11:10:00"
                }
            ],
            "comments": [
            ],
            "images": {
                "small": "image-url/small.jpg",
                "medium": "image-url/medium.jpg",
                "large": "image-url/large.jpg"
            }
        },
        {
            "id": 104,
            "movie_id": 3,
            "title": "やばい！これは燃えるwwwww",
            "forum_pinned_at": "00:01:07",
            "number_of_comments": 108,
            "forum_owner_username": "otome",
            "created_at": "2016/07/01 15:10:00",
            "updated_at": "2014/02/23 15:10:00",
            "hashtags": [
                {
                    "id": 1,
                    "name": "tag1",
                    "created_at": "2014/02/22 11:10:00",
                    "updated_at": "2014/02/22 11:10:00"
                },
                {
                    "id": 1,
                    "name": "tag1",
                    "created_at": "2014/02/22 11:10:00",
                    "updated_at": "2014/02/22 11:10:00"
                }
            ],
            "comments": [
            ],
            "images": {
                "small": "image-url/small.jpg",
                "medium": "image-url/medium.jpg",
                "large": "image-url/large.jpg"
            }
        },
        {
            "id": 105,
            "movie_id": 3,
            "title": "騰が強すぎる…化け物かよ…",
            "forum_pinned_at": "00:03:50",
            "number_of_comments": 108,
            "forum_owner_username": "yurika",
            "created_at": "2016/07/01 11:10:00",
            "updated_at": "2014/02/24 11:10:00",
            "hashtags": [
                {
                    "id": 1,
                    "name": "tag1",
                    "created_at": "2014/02/22 11:10:00",
                    "updated_at": "2014/02/22 11:10:00"
                },
                {
                    "id": 1,
                    "name": "tag1",
                    "created_at": "2014/02/22 11:10:00",
                    "updated_at": "2014/02/22 11:10:00"
                }
            ],
            "comments": [
            ],
            "images": {
                "small": "image-url/small.jpg",
                "medium": "image-url/medium.jpg",
                "large": "image-url/large.jpg"
            }
        },
        {
            "id": 106,
            "movie_id": 3,
            "title": "名前のない兵もめっちゃかっこいい",
            "forum_pinned_at": "00:05:00",
            "number_of_comments": 108,
            "forum_owner_username": "sakura",
            "created_at": "2016/07/01 11:55:00",
            "updated_at": "2014/02/23 11:55:00",
            "hashtags": [
                {
                    "id": 1,
                    "name": "tag1",
                    "created_at": "2014/02/22 11:10:00",
                    "updated_at": "2014/02/22 11:10:00"
                },
                {
                    "id": 1,
                    "name": "tag1",
                    "created_at": "2014/02/22 11:10:00",
                    "updated_at": "2014/02/22 11:10:00"
                }
            ],
            "comments": [
            ],
            "images": {
                "small": "image-url/small.jpg",
                "medium": "image-url/medium.jpg",
                "large": "image-url/large.jpg"
            }
        },
        {
            "id": 107,
            "movie_id": 3,
            "title": "うおおおおおお！王騎生きてたの！？",
            "forum_pinned_at": "00:06:20",
            "number_of_comments": 108,
            "forum_owner_username": "kaede",
            "created_at": "2016/07/01 13:10:00",
            "updated_at": "2014/02/30 13:10:00",
            "hashtags": [
                {
                    "id": 1,
                    "name": "tag1",
                    "created_at": "2014/02/22 11:10:00",
                    "updated_at": "2014/02/22 11:10:00"
                },
                {
                    "id": 1,
                    "name": "tag1",
                    "created_at": "2014/02/22 11:10:00",
                    "updated_at": "2014/02/22 11:10:00"
                }
            ],
            "comments": [
            ],
            "images": {
                "small": "image-url/small.jpg",
                "medium": "image-url/medium.jpg",
                "large": "image-url/large.jpg"
            }
        },
        {
            "id": 108,
            "movie_id": 3,
            "title": "この画、このセリフ…キングダムで一番好きなシーンかも。",
            "forum_pinned_at": "00:08:20",
            "number_of_comments": 108,
            "forum_owner_username": "akari",
            "created_at": "2016/07/01 11:10:00",
            "updated_at": "2014/02/23 11:10:00",
            "hashtags": [
                {
                    "id": 1,
                    "name": "tag1",
                    "created_at": "2014/02/22 11:10:00",
                    "updated_at": "2014/02/22 11:10:00"
                },
                {
                    "id": 1,
                    "name": "tag1",
                    "created_at": "2014/02/22 11:10:00",
                    "updated_at": "2014/02/22 11:10:00"
                }
            ],
            "comments": [
            ],
            "images": {
                "small": "image-url/small.jpg",
                "medium": "image-url/medium.jpg",
                "large": "image-url/large.jpg"
            }
        },
        {
            "id": 109,
            "movie_id": 3,
            "title": "ここ本当に泣ける…",
            "forum_pinned_at": "00:11:45",
            "number_of_comments": 108,
            "forum_owner_username": "hinaki",
            "created_at": "2016/07/01 11:10:00",
            "updated_at": "2014/02/23 11:10:00",
            "hashtags": [
                {
                    "id": 1,
                    "name": "tag1",
                    "created_at": "2014/02/22 11:10:00",
                    "updated_at": "2014/02/22 11:10:00"
                },
                {
                    "id": 1,
                    "name": "tag1",
                    "created_at": "2014/02/22 11:10:00",
                    "updated_at": "2014/02/22 11:10:00"
                }
            ],
            "comments": [
            ],
            "images": {
                "small": "image-url/small.jpg",
                "medium": "image-url/medium.jpg",
                "large": "image-url/large.jpg"
            }
        },
        {
            "id": 110,
            "movie_id": 3,
            "title": "始皇3年 王騎 死す",
            "forum_pinned_at": "00:14:40",
            "number_of_comments": 108,
            "forum_owner_username": "mizuki",
            "created_at": "2016/07/01 11:10:00",
            "updated_at": "2014/02/23 11:10:00",
            "hashtags": [
                {
                    "id": 1,
                    "name": "tag1",
                    "created_at": "2014/02/22 11:10:00",
                    "updated_at": "2014/02/22 11:10:00"
                },
                {
                    "id": 1,
                    "name": "tag1",
                    "created_at": "2014/02/22 11:10:00",
                    "updated_at": "2014/02/22 11:10:00"
                }
            ],
            "comments": [
            ],
            "images": {
                "small": "image-url/small.jpg",
                "medium": "image-url/medium.jpg",
                "large": "image-url/large.jpg"
            }
        },
        {
            "id": 111,
            "movie_id": 3,
            "title": "嬴政も王騎から認められてたんですね",
            "forum_pinned_at": "00:18:00",
            "number_of_comments": 108,
            "forum_owner_username": "aoi",
            "created_at": "2016/07/01 11:10:00",
            "updated_at": "2014/02/23 11:10:00",
            "hashtags": [
                {
                    "id": 1,
                    "name": "tag1",
                    "created_at": "2014/02/22 11:10:00",
                    "updated_at": "2014/02/22 11:10:00"
                },
                {
                    "id": 1,
                    "name": "tag1",
                    "created_at": "2014/02/22 11:10:00",
                    "updated_at": "2014/02/22 11:10:00"
                }
            ],
            "comments": [
            ],
            "images": {
                "small": "image-url/small.jpg",
                "medium": "image-url/medium.jpg",
                "large": "image-url/large.jpg"
            }
        },
        {
            "id": 112,
            "movie_id": 3,
            "title": "いい最終回だった！！！",
            "forum_pinned_at": "00:23:30",
            "number_of_comments": 108,
            "forum_owner_username": "ran",
            "created_at": "2016/07/01 11:10:00",
            "updated_at": "2014/02/23 11:10:00",
            "hashtags": [
                {
                    "id": 1,
                    "name": "tag1",
                    "created_at": "2014/02/22 11:10:00",
                    "updated_at": "2014/02/22 11:10:00"
                },
                {
                    "id": 1,
                    "name": "tag1",
                    "created_at": "2014/02/22 11:10:00",
                    "updated_at": "2014/02/22 11:10:00"
                }
            ],
            "comments": [
            ],
            "images": {
                "small": "image-url/small.jpg",
                "medium": "image-url/medium.jpg",
                "large": "image-url/large.jpg"
            }
        },
        {
            "id": 51,
            "movie_id": 2,
            "title": " ラブライブ！サンシャイン！！ 12話 みんなの感想 ",
            "forum_pinned_at": "00:22:00",
            "number_of_comments": 20,
            "forum_owner_username": "nishiyan",
            "created_at": "2014/02/22 11:00:00",
            "updated_at": "2014/02/23 11:00:00",
            "hashtags": [
                {
                    "id": 1,
                    "name": "tag1",
                    "created_at": "2014/02/22 11:00:00",
                    "updated_at": "2014/02/22 11:00:00"
                },
                {
                    "id": 1,
                    "name": "tag1",
                    "created_at": "2014/02/22 11:00:00",
                    "updated_at": "2014/02/22 11:00:00"
                }
            ],
            "comments": [
            ],
            "images": {
                "small": "image-url/small.jpg",
                "medium": "image-url/medium.jpg",
                "large": "image-url/large.jpg"
            }
        },
        {
            "id": 52,
            "movie_id": 2,
            "title": " ズラ丸また何か食ってるな ",
            "forum_pinned_at": "00:00:59",
            "number_of_comments": 20,
            "forum_owner_username": "カツラ@ズラ丸",
            "created_at": "2014/02/22 11:10:00",
            "updated_at": "2014/02/23 11:10:00",
            "hashtags": [
                {
                    "id": 1,
                    "name": "tag1",
                    "created_at": "2014/02/22 11:10:00",
                    "updated_at": "2014/02/22 11:10:00"
                },
                {
                    "id": 1,
                    "name": "tag1",
                    "created_at": "2014/02/22 11:10:00",
                    "updated_at": "2014/02/22 11:10:00"
                }
            ],
            "comments": [
            ],
            "images": {
                "small": "image-url/small.jpg",
                "medium": "image-url/medium.jpg",
                "large": "image-url/large.jpg"
            }
        },
        {
            "id": 53,
            "movie_id": 2,
            "title": " お祝いに船盛りって・・・ ",
            "forum_pinned_at": "00:03:37",
            "number_of_comments": 20,
            "forum_owner_username": "カナーン",
            "created_at": "2014/02/22 11:20:00",
            "updated_at": "2014/02/23 11:20:00",
            "hashtags": [
                {
                    "id": 1,
                    "name": "tag1",
                    "created_at": "2014/02/22 11:10:00",
                    "updated_at": "2014/02/22 11:10:00"
                },
                {
                    "id": 1,
                    "name": "tag1",
                    "created_at": "2014/02/22 11:10:00",
                    "updated_at": "2014/02/22 11:10:00"
                }
            ],
            "comments": [
            ],
            "images": {
                "small": "image-url/small.jpg",
                "medium": "image-url/medium.jpg",
                "large": "image-url/large.jpg"
            }
        },
        {
            "id": 54,
            "movie_id": 2,
            "title": "【悲報】学校説明会希望者なし ",
            "forum_pinned_at": "00:05:19",
            "number_of_comments": 20,
            "forum_owner_username": "men",
            "created_at": "2014/02/22 11:30:00",
            "updated_at": "2014/02/23 11:30:00",
            "hashtags": [
                {
                    "id": 1,
                    "name": "tag1",
                    "created_at": "2014/02/22 11:10:00",
                    "updated_at": "2014/02/22 11:10:00"
                },
                {
                    "id": 1,
                    "name": "tag1",
                    "created_at": "2014/02/22 11:10:00",
                    "updated_at": "2014/02/22 11:10:00"
                }
            ],
            "comments": [
            ],
            "images": {
                "small": "image-url/small.jpg",
                "medium": "image-url/medium.jpg",
                "large": "image-url/large.jpg"
            }
        },
        {
            "id": 55,
            "movie_id": 2,
            "title": " モブキャラ可愛いすぎない！？？ ",
            "forum_pinned_at": "00:05:45",
            "number_of_comments": 20,
            "forum_owner_username": "supu",
            "created_at": "2014/02/22 11:40:00",
            "updated_at": "2014/02/23 11:40:00",
            "hashtags": [
                {
                    "id": 1,
                    "name": "tag1",
                    "created_at": "2014/02/22 11:10:00",
                    "updated_at": "2014/02/22 11:10:00"
                },
                {
                    "id": 1,
                    "name": "tag1",
                    "created_at": "2014/02/22 11:10:00",
                    "updated_at": "2014/02/22 11:10:00"
                }
            ],
            "comments": [
            ],
            "images": {
                "small": "image-url/small.jpg",
                "medium": "image-url/medium.jpg",
                "large": "image-url/large.jpg"
            }
        },
        {
            "id": 56,
            "movie_id": 2,
            "title": " 私服可愛い（＾＾） ",
            "forum_pinned_at": "00:08:47",
            "number_of_comments": 20,
            "forum_owner_username": "nall",
            "created_at": "2014/02/22 11:50:00",
            "updated_at": "2014/02/23 11:50:00",
            "hashtags": [
                {
                    "id": 1,
                    "name": "tag1",
                    "created_at": "2014/02/22 11:10:00",
                    "updated_at": "2014/02/22 11:10:00"
                },
                {
                    "id": 1,
                    "name": "tag1",
                    "created_at": "2014/02/22 11:10:00",
                    "updated_at": "2014/02/22 11:10:00"
                }
            ],
            "comments": [
            ],
            "images": {
                "small": "image-url/small.jpg",
                "medium": "image-url/medium.jpg",
                "large": "image-url/large.jpg"
            }
        },
        {
            "id": 57,
            "movie_id": 2,
            "title": " ダイヤさん東京警戒しすぎぃ！！ ",
            "forum_pinned_at": "00:09:41",
            "number_of_comments": 20,
            "forum_owner_username": "ハリー",
            "created_at": "2014/02/22 12:00:00",
            "updated_at": "2014/02/23 12:00:00",
            "hashtags": [
                {
                    "id": 1,
                    "name": "tag1",
                    "created_at": "2014/02/22 11:10:00",
                    "updated_at": "2014/02/22 11:10:00"
                },
                {
                    "id": 1,
                    "name": "tag1",
                    "created_at": "2014/02/22 11:10:00",
                    "updated_at": "2014/02/22 11:10:00"
                }
            ],
            "comments": [
            ],
            "images": {
                "small": "image-url/small.jpg",
                "medium": "image-url/medium.jpg",
                "large": "image-url/large.jpg"
            }
        },
        {
            "id": 58,
            "movie_id": 2,
            "title": " 梨子ちゃん買いすぎじゃない？ ",
            "forum_pinned_at": "00:10:10",
            "number_of_comments": 20,
            "forum_owner_username": "ミナリンスキー",
            "created_at": "2014/02/22 12:10:00",
            "updated_at": "2014/02/23 12:10:00",
            "hashtags": [
                {
                    "id": 1,
                    "name": "tag1",
                    "created_at": "2014/02/22 11:10:00",
                    "updated_at": "2014/02/22 11:10:00"
                },
                {
                    "id": 1,
                    "name": "tag1",
                    "created_at": "2014/02/22 11:10:00",
                    "updated_at": "2014/02/22 11:10:00"
                }
            ],
            "comments": [
            ],
            "images": {
                "small": "image-url/small.jpg",
                "medium": "image-url/medium.jpg",
                "large": "image-url/large.jpg"
            }
        },
        {
            "id": 59,
            "movie_id": 2,
            "title": " UTX学園キターーーーー！！！！ ",
            "forum_pinned_at": "00:11:21",
            "number_of_comments": 20,
            "forum_owner_username": "にこにー",
            "created_at": "2014/02/22 12:20:00",
            "updated_at": "2014/02/23 12:20:00",
            "hashtags": [
                {
                    "id": 1,
                    "name": "tag1",
                    "created_at": "2014/02/22 11:10:00",
                    "updated_at": "2014/02/22 11:10:00"
                },
                {
                    "id": 1,
                    "name": "tag1",
                    "created_at": "2014/02/22 11:10:00",
                    "updated_at": "2014/02/22 11:10:00"
                }
            ],
            "comments": [
            ],
            "images": {
                "small": "image-url/small.jpg",
                "medium": "image-url/medium.jpg",
                "large": "image-url/large.jpg"
            }
        },
        {
            "id": 60,
            "movie_id": 2,
            "title": " 遂に音ノ木坂！！ ",
            "forum_pinned_at": "00:14:10",
            "number_of_comments": 20,
            "forum_owner_username": "mi-ya",
            "created_at": "2014/02/22 12:30:00",
            "updated_at": "2014/02/23 12:30:00",
            "hashtags": [
                {
                    "id": 1,
                    "name": "tag1",
                    "created_at": "2014/02/22 11:10:00",
                    "updated_at": "2014/02/22 11:10:00"
                },
                {
                    "id": 1,
                    "name": "tag1",
                    "created_at": "2014/02/22 11:10:00",
                    "updated_at": "2014/02/22 11:10:00"
                }
            ],
            "comments": [
            ],
            "images": {
                "small": "image-url/small.jpg",
                "medium": "image-url/medium.jpg",
                "large": "image-url/large.jpg"
            }
        },
        {
            "id": 61,
            "movie_id": 2,
            "title": " μ’ｓの言葉に泣いた… ",
            "forum_pinned_at": "00:15:19",
            "number_of_comments": 20,
            "forum_owner_username": "izum",
            "created_at": "2014/02/22 12:40:00",
            "updated_at": "2014/02/23 12:40:00",
            "hashtags": [
                {
                    "id": 1,
                    "name": "tag1",
                    "created_at": "2014/02/22 11:10:00",
                    "updated_at": "2014/02/22 11:10:00"
                },
                {
                    "id": 1,
                    "name": "tag1",
                    "created_at": "2014/02/22 11:10:00",
                    "updated_at": "2014/02/22 11:10:00"
                }
            ],
            "comments": [
            ],
            "images": {
                "small": "image-url/small.jpg",
                "medium": "image-url/medium.jpg",
                "large": "image-url/large.jpg"
            }
        },
        {
            "id": 62,
            "movie_id": 2,
            "title": " 穂乃果ちゃん！！？ ",
            "forum_pinned_at": "00:15:40",
            "number_of_comments": 20,
            "forum_owner_username": "チュンチュン",
            "created_at": "2014/02/22 12:50:00",
            "updated_at": "2014/02/23 12:50:00",
            "hashtags": [
                {
                    "id": 1,
                    "name": "tag1",
                    "created_at": "2014/02/22 11:10:00",
                    "updated_at": "2014/02/22 11:10:00"
                },
                {
                    "id": 1,
                    "name": "tag1",
                    "created_at": "2014/02/22 11:10:00",
                    "updated_at": "2014/02/22 11:10:00"
                }
            ],
            "comments": [
            ],
            "images": {
                "small": "image-url/small.jpg",
                "medium": "image-url/medium.jpg",
                "large": "image-url/large.jpg"
            }
        },
        {
            "id": 63,
            "movie_id": 2,
            "title": " 音ノ木坂 → 誓いの海 という流れ ",
            "forum_pinned_at": "00:19:51",
            "number_of_comments": 20,
            "forum_owner_username": "しゃもじ",
            "created_at": "2014/02/22 13:10:00",
            "updated_at": "2014/02/23 13:10:00",
            "hashtags": [
                {
                    "id": 1,
                    "name": "tag1",
                    "created_at": "2014/02/22 11:10:00",
                    "updated_at": "2014/02/22 11:10:00"
                },
                {
                    "id": 1,
                    "name": "tag1",
                    "created_at": "2014/02/22 11:10:00",
                    "updated_at": "2014/02/22 11:10:00"
                }
            ],
            "comments": [
            ],
            "images": {
                "small": "image-url/small.jpg",
                "medium": "image-url/medium.jpg",
                "large": "image-url/large.jpg"
            }
        },
        {
            "id": 64,
            "movie_id": 2,
            "title": " 12話が良い回すぎる！！ ",
            "forum_pinned_at": "00:20:55",
            "number_of_comments": 20,
            "forum_owner_username": "フカヒレ",
            "created_at": "2014/02/22 13:20:00",
            "updated_at": "2014/02/23 13:20:00",
            "hashtags": [
                {
                    "id": 1,
                    "name": "tag1",
                    "created_at": "2014/02/22 11:10:00",
                    "updated_at": "2014/02/22 11:10:00"
                },
                {
                    "id": 1,
                    "name": "tag1",
                    "created_at": "2014/02/22 11:10:00",
                    "updated_at": "2014/02/22 11:10:00"
                }
            ],
            "comments": [
            ],
            "images": {
                "small": "image-url/small.jpg",
                "medium": "image-url/medium.jpg",
                "large": "image-url/large.jpg"
            }
        },
        {
            "id": 1,
            "movie_id":1,
            "title": "食戟のソーマ1話 みんなの感想",
            "forum_pinned_at": "00:00:00",
            "number_of_comments": 10,
            "forum_owner_username": "ikkei",
            "created_at": "2016/09/22 11:00:00",
            "updated_at": "2016/09/23 11:00:00",
            "hashtags": [
                {
                    "id": 1,
                    "name": "tag1",
                    "created_at": "2014/02/22 11:00:00",
                    "updated_at": "2014/02/22 11:00:00"
                },
                {
                    "id": 1,
                    "name": "tag1",
                    "created_at": "2014/02/22 11:00:00",
                    "updated_at": "2014/02/22 11:00:00"
                }
            ],
            "comments": [
            ],
            "images": {
                "small": "image-url/small.jpg",
                "medium": "image-url/medium.jpg",
                "large": "image-url/large.jpg"
            }
        },
        {
            "id": 2,
            "movie_id": 1,
            "title": "料理の描写がホントにリアル",
            "forum_pinned_at": "00:01:00",
            "number_of_comments": 15,
            "forum_owner_username": "gouda",
            "created_at": "2016/09/22 11:10:00",
            "updated_at": "2016/09/23 11:10:00",
            "hashtags": [
                {
                    "id": 1,
                    "name": "tag1",
                    "created_at": "2014/02/22 11:10:00",
                    "updated_at": "2014/02/22 11:10:00"
                },
                {
                    "id": 1,
                    "name": "tag1",
                    "created_at": "2014/02/22 11:10:00",
                    "updated_at": "2014/02/22 11:10:00"
                }
            ],
            "comments": [
            ],
            "images": {
                "small": "image-url/small.jpg",
                "medium": "image-url/medium.jpg",
                "large": "image-url/large.jpg"
            }
        } ,
        {
            "id": 3,
            "movie_id": 1,
            "title": "キャラが魅力的だよね。モブもキャラが立ってる",
            "forum_pinned_at": "00:02:00",
            "number_of_comments": 20,
            "forum_owner_username": "aoi",
            "created_at": "2016/09/22 11:10:00",
            "updated_at": "2016/09/23 11:10:00",
            "hashtags": [
                {
                    "id": 1,
                    "name": "tag1",
                    "created_at": "2014/02/22 11:10:00",
                    "updated_at": "2014/02/22 11:10:00"
                },
                {
                    "id": 1,
                    "name": "tag1",
                    "created_at": "2014/02/22 11:10:00",
                    "updated_at": "2014/02/22 11:10:00"
                }
            ],
            "comments": [
            ],
            "images": {
                "small": "image-url/small.jpg",
                "medium": "image-url/medium.jpg",
                "large": "image-url/large.jpg"
            }
        } ,
        {
            "id": 4,
            "movie_id": 1,
            "title": "こういうギャグ描写もいい",
            "forum_pinned_at": "00:02:50",
            "number_of_comments": 20,
            "forum_owner_username": "poko",
            "created_at": "2016/09/22 11:10:00",
            "updated_at": "2016/09/23 11:10:00",
            "hashtags": [
                {
                    "id": 1,
                    "name": "tag1",
                    "created_at": "2014/02/22 11:10:00",
                    "updated_at": "2014/02/22 11:10:00"
                },
                {
                    "id": 1,
                    "name": "tag1",
                    "created_at": "2014/02/22 11:10:00",
                    "updated_at": "2014/02/22 11:10:00"
                }
            ],
            "comments": [
            ],
            "images": {
                "small": "image-url/small.jpg",
                "medium": "image-url/medium.jpg",
                "large": "image-url/large.jpg"
            }
        } ,
        {
            "id": 5,
            "movie_id": 1,
            "title": "オープニングがもはやバトル作品だよね",
            "forum_pinned_at": "00:05:20",
            "number_of_comments": 20,
            "forum_owner_username": "monmon",
            "created_at": "2016/09/22 11:10:00",
            "updated_at": "2016/09/23 11:10:00",
            "hashtags": [
                {
                    "id": 1,
                    "name": "tag1",
                    "created_at": "2014/02/22 11:10:00",
                    "updated_at": "2014/02/22 11:10:00"
                },
                {
                    "id": 1,
                    "name": "tag1",
                    "created_at": "2014/02/22 11:10:00",
                    "updated_at": "2014/02/22 11:10:00"
                }
            ],
            "comments": [
            ],
            "images": {
                "small": "image-url/small.jpg",
                "medium": "image-url/medium.jpg",
                "large": "image-url/large.jpg"
            }
        } ,
        {
            "id": 6,
            "movie_id": 1,
            "title": "敵なのに良いキャラしてる",
            "forum_pinned_at": "00:06:10",
            "number_of_comments": 10,
            "forum_owner_username": "gouda",
            "created_at": "2016/09/22 11:10:00",
            "updated_at": "2016/09/23 11:10:00",
            "hashtags": [
                {
                    "id": 1,
                    "name": "tag1",
                    "created_at": "2014/02/22 11:10:00",
                    "updated_at": "2014/02/22 11:10:00"
                },
                {
                    "id": 1,
                    "name": "tag1",
                    "created_at": "2014/02/22 11:10:00",
                    "updated_at": "2014/02/22 11:10:00"
                }
            ],
            "comments": [
            ],
            "images": {
                "small": "image-url/small.jpg",
                "medium": "image-url/medium.jpg",
                "large": "image-url/large.jpg"
            }
        } ,
        {
            "id": 7,
            "movie_id": 1,
            "title": "料理できる系男子、いいと思います!",
            "forum_pinned_at": "00:09:20",
            "number_of_comments": 20,
            "forum_owner_username": "munakata",
            "created_at": "2016/09/22 11:10:00",
            "updated_at": "2016/09/23 11:10:00",
            "hashtags": [
                {
                    "id": 1,
                    "name": "tag1",
                    "created_at": "2014/02/22 11:10:00",
                    "updated_at": "2014/02/22 11:10:00"
                },
                {
                    "id": 1,
                    "name": "tag1",
                    "created_at": "2014/02/22 11:10:00",
                    "updated_at": "2014/02/22 11:10:00"
                }
            ],
            "comments": [
            ],
            "images": {
                "small": "image-url/small.jpg",
                "medium": "image-url/medium.jpg",
                "large": "image-url/large.jpg"
            }
        } ,
        {
            "id": 8,
            "movie_id": 1,
            "title": "おおおっといきなりの大ピンチ!",
            "forum_pinned_at": "00:010:55",
            "number_of_comments": 30,
            "forum_owner_username": "munakata",
            "created_at": "2016/09/22 11:10:00",
            "updated_at": "2016/09/23 11:10:00",
            "hashtags": [
                {
                    "id": 1,
                    "name": "tag1",
                    "created_at": "2014/02/22 11:10:00",
                    "updated_at": "2014/02/22 11:10:00"
                },
                {
                    "id": 1,
                    "name": "tag1",
                    "created_at": "2014/02/22 11:10:00",
                    "updated_at": "2014/02/22 11:10:00"
                }
            ],
            "comments": [
            ],
            "images": {
                "small": "image-url/small.jpg",
                "medium": "image-url/medium.jpg",
                "large": "image-url/large.jpg"
            }
        } ,
        {
            "id": 9,
            "movie_id": 1,
            "title": "この状況どうするんだよ……ソーマくん……",
            "forum_pinned_at": "00:12:00",
            "number_of_comments": 20,
            "forum_owner_username": "ikkei",
            "created_at": "2016/09/22 11:10:00",
            "updated_at": "2016/09/23 11:10:00",
            "hashtags": [
                {
                    "id": 1,
                    "name": "tag1",
                    "created_at": "2014/02/22 11:10:00",
                    "updated_at": "2014/02/22 11:10:00"
                },
                {
                    "id": 1,
                    "name": "tag1",
                    "created_at": "2014/02/22 11:10:00",
                    "updated_at": "2014/02/22 11:10:00"
                }
            ],
            "comments": [
            ],
            "images": {
                "small": "image-url/small.jpg",
                "medium": "image-url/medium.jpg",
                "large": "image-url/large.jpg"
            }
        } ,
        {
            "id": 10,
            "movie_id": 1,
            "title": "いやあ〜迫真の料理描写",
            "forum_pinned_at": "00:12:30",
            "number_of_comments": 10,
            "forum_owner_username": "poko",
            "created_at": "2016/09/22 11:10:00",
            "updated_at": "2016/09/23 11:10:00",
            "hashtags": [
                {
                    "id": 1,
                    "name": "tag1",
                    "created_at": "2014/02/22 11:10:00",
                    "updated_at": "2014/02/22 11:10:00"
                },
                {
                    "id": 1,
                    "name": "tag1",
                    "created_at": "2014/02/22 11:10:00",
                    "updated_at": "2014/02/22 11:10:00"
                }
            ],
            "comments": [
            ],
            "images": {
                "small": "image-url/small.jpg",
                "medium": "image-url/medium.jpg",
                "large": "image-url/large.jpg"
            }
        } ,
        {
            "id":  11,
            "movie_id": 1,
            "title": "なんちゃってローストポークだ!",
            "forum_pinned_at": "00:13:20",
            "number_of_comments": 20,
            "forum_owner_username": "gouda",
            "created_at": "2016/09/22 11:10:00",
            "updated_at": "2016/09/23 11:10:00",
            "hashtags": [
                {
                    "id": 1,
                    "name": "tag1",
                    "created_at": "2014/02/22 11:10:00",
                    "updated_at": "2014/02/22 11:10:00"
                },
                {
                    "id": 1,
                    "name": "tag1",
                    "created_at": "2014/02/22 11:10:00",
                    "updated_at": "2014/02/22 11:10:00"
                }
            ],
            "comments": [
            ],
            "images": {
                "small": "image-url/small.jpg",
                "medium": "image-url/medium.jpg",
                "large": "image-url/large.jpg"
            }
        } ,
        {
            "id": 12,
            "movie_id": 1,
            "title": "食べるだけなのにこの緊張感よ",
            "forum_pinned_at": "00:15:30",
            "number_of_comments": 10,
            "forum_owner_username": "monmon",
            "created_at": "2016/09/22 11:10:00",
            "updated_at": "2016/09/23 11:10:00",
            "hashtags": [
                {
                    "id": 1,
                    "name": "tag1",
                    "created_at": "2014/02/22 11:10:00",
                    "updated_at": "2014/02/22 11:10:00"
                },
                {
                    "id": 1,
                    "name": "tag1",
                    "created_at": "2014/02/22 11:10:00",
                    "updated_at": "2014/02/22 11:10:00"
                }
            ],
            "comments": [
            ],
            "images": {
                "small": "image-url/small.jpg",
                "medium": "image-url/medium.jpg",
                "large": "image-url/large.jpg"
            }
        } ,
        {
            "id": 13,
            "movie_id": 1,
            "title": "お姉さん完全敗北したああああ!",
            "forum_pinned_at": "00:18:00",
            "number_of_comments": 20,
            "forum_owner_username": "ikkei",
            "created_at": "2016/09/22 11:10:00",
            "updated_at": "2016/09/23 11:10:00",
            "hashtags": [
                {
                    "id": 1,
                    "name": "tag1",
                    "created_at": "2014/02/22 11:10:00",
                    "updated_at": "2014/02/22 11:10:00"
                },
                {
                    "id": 1,
                    "name": "tag1",
                    "created_at": "2014/02/22 11:10:00",
                    "updated_at": "2014/02/22 11:10:00"
                }
            ],
            "comments": [
            ],
            "images": {
                "small": "image-url/small.jpg",
                "medium": "image-url/medium.jpg",
                "large": "image-url/large.jpg"
            }
        } ,
        {
            "id": 14,
            "movie_id": 1,
            "title": "衝撃の展開……ソーマくんかわいそう",
            "forum_pinned_at": "00:19:30",
            "number_of_comments": 20,
            "forum_owner_username": "aoi",
            "created_at": "2016/09/22 11:10:00",
            "updated_at": "2016/09/23 11:10:00",
            "hashtags": [
                {
                    "id": 1,
                    "name": "tag1",
                    "created_at": "2014/02/22 11:10:00",
                    "updated_at": "2014/02/22 11:10:00"
                },
                {
                    "id": 1,
                    "name": "tag1",
                    "created_at": "2014/02/22 11:10:00",
                    "updated_at": "2014/02/22 11:10:00"
                }
            ],
            "comments": [
            ],
            "images": {
                "small": "image-url/small.jpg",
                "medium": "image-url/medium.jpg",
                "large": "image-url/large.jpg"
            }
        } ,
        {
            "id": 15,
            "movie_id": 1,
            "title": "ソーマくんの明日はどっちだ……。",
            "forum_pinned_at": "00:22:00",
            "number_of_comments": 10,
            "forum_owner_username": "ikkei",
            "created_at": "2016/09/22 11:10:00",
            "updated_at": "2016/09/23 11:10:00",
            "hashtags": [
                {
                    "id": 1,
                    "name": "tag1",
                    "created_at": "2014/02/22 11:10:00",
                    "updated_at": "2014/02/22 11:10:00"
                },
                {
                    "id": 1,
                    "name": "tag1",
                    "created_at": "2014/02/22 11:10:00",
                    "updated_at": "2014/02/22 11:10:00"
                }
            ],
            "comments": [
            ],
            "images": {
                "small": "image-url/small.jpg",
                "medium": "image-url/medium.jpg",
                "large": "image-url/large.jpg"
            }
        } ,
        {
            "id": 16,
            "movie_id": 1,
            "title": "謎の滝業シーン……からのヒロイン登場",
            "forum_pinned_at": "00:23:00",
            "number_of_comments": 20,
            "forum_owner_username": "munakata",
            "created_at": "2016/09/22 11:10:00",
            "updated_at": "2016/09/23 11:10:00",
            "hashtags": [
                {
                    "id": 1,
                    "name": "tag1",
                    "created_at": "2016/09/22 11:10:00",
                    "updated_at": "2016/09/23 11:10:00"
                },
                {
                    "id": 1,
                    "name": "tag1",
                    "created_at": "2014/02/22 11:10:00",
                    "updated_at": "2014/02/22 11:10:00"
                }
            ],
            "comments": [
            ],
            "images": {
                "small": "image-url/small.jpg",
                "medium": "image-url/medium.jpg",
                "large": "image-url/large.jpg"
            }
        }
    ]
}
